 - Tue, 28 Mar 2023 00:52:40 loader.py[line:40] INFO create_model. model_name = cnn, output_dim = 10
 - Tue, 28 Mar 2023 00:52:40 loader.py[line:44] INFO CNN + Cifar10
 - Tue, 28 Mar 2023 00:52:40 grpc_comm_manager.py[line:44] INFO /home/shulinp2/cs-525-research
server started. Listening on port 50006
 - Tue, 28 Mar 2023 00:54:55 grpc_server.py[line:29] INFO client_6 got something from client_0 from ip address 172.22.151.37
 - Tue, 28 Mar 2023 00:54:56 FedProxClientManager.py[line:31] INFO handle_message_receive_model_from_server.
 - Tue, 28 Mar 2023 00:54:56 FedProxClientManager.py[line:61] INFO #######training########### round_id = 1
 - Tue, 28 Mar 2023 00:54:57 my_model_trainer_classification.py[line:65] INFO Client Index = 5	Epoch: 0	Loss: 10.125976
 - Tue, 28 Mar 2023 00:54:57 my_model_trainer_classification.py[line:65] INFO Client Index = 5	Epoch: 1	Loss: 5.347179
 - Tue, 28 Mar 2023 00:54:58 my_model_trainer_classification.py[line:65] INFO Client Index = 5	Epoch: 2	Loss: 3.761591
########### client training time for epoch 3: 1.4583005905151367
########### client 136 delay 0.0s
############# client 136   training time: 1.71826171875
json string size = 49640748
 - Tue, 28 Mar 2023 00:55:00 grpc_comm_manager.py[line:67] INFO sending message to 172.22.151.37:50000
 - Tue, 28 Mar 2023 00:55:28 grpc_server.py[line:29] INFO client_6 got something from client_0 from ip address 172.22.151.37
 - Tue, 28 Mar 2023 00:55:29 FedProxClientManager.py[line:31] INFO handle_message_receive_model_from_server.
 - Tue, 28 Mar 2023 00:55:29 FedProxClientManager.py[line:61] INFO #######training########### round_id = 2
 - Tue, 28 Mar 2023 00:55:30 my_model_trainer_classification.py[line:65] INFO Client Index = 5	Epoch: 0	Loss: 0.869853
 - Tue, 28 Mar 2023 00:55:30 my_model_trainer_classification.py[line:65] INFO Client Index = 5	Epoch: 1	Loss: 0.738171
 - Tue, 28 Mar 2023 00:55:30 my_model_trainer_classification.py[line:65] INFO Client Index = 5	Epoch: 2	Loss: 0.585352
########### client training time for epoch 3: 1.4397218227386475
########### client 127 delay 0.0s
############# client 127   training time: 1.6342227458953857
json string size = 50954228
 - Tue, 28 Mar 2023 00:55:32 grpc_comm_manager.py[line:67] INFO sending message to 172.22.151.37:50000
 - Tue, 28 Mar 2023 00:56:00 grpc_server.py[line:29] INFO client_6 got something from client_0 from ip address 172.22.151.37
 - Tue, 28 Mar 2023 00:56:01 FedProxClientManager.py[line:31] INFO handle_message_receive_model_from_server.
 - Tue, 28 Mar 2023 00:56:01 FedProxClientManager.py[line:61] INFO #######training########### round_id = 3
 - Tue, 28 Mar 2023 00:56:01 my_model_trainer_classification.py[line:65] INFO Client Index = 5	Epoch: 0	Loss: 1.717722
 - Tue, 28 Mar 2023 00:56:02 my_model_trainer_classification.py[line:65] INFO Client Index = 5	Epoch: 1	Loss: 1.154926
 - Tue, 28 Mar 2023 00:56:02 my_model_trainer_classification.py[line:65] INFO Client Index = 5	Epoch: 2	Loss: 0.907144
########### client training time for epoch 3: 1.4766652584075928
########### client 254 delay 0.0s
############# client 254   training time: 1.6633596420288086
json string size = 50642312
 - Tue, 28 Mar 2023 00:56:04 grpc_comm_manager.py[line:67] INFO sending message to 172.22.151.37:50000
 - Tue, 28 Mar 2023 00:56:31 grpc_server.py[line:29] INFO client_6 got something from client_0 from ip address 172.22.151.37
 - Tue, 28 Mar 2023 00:56:32 FedProxClientManager.py[line:31] INFO handle_message_receive_model_from_server.
 - Tue, 28 Mar 2023 00:56:32 FedProxClientManager.py[line:61] INFO #######training########### round_id = 4
 - Tue, 28 Mar 2023 00:56:32 my_model_trainer_classification.py[line:65] INFO Client Index = 5	Epoch: 0	Loss: 1.104904
 - Tue, 28 Mar 2023 00:56:33 my_model_trainer_classification.py[line:65] INFO Client Index = 5	Epoch: 1	Loss: 0.872201
 - Tue, 28 Mar 2023 00:56:33 my_model_trainer_classification.py[line:65] INFO Client Index = 5	Epoch: 2	Loss: 0.745251
########### client training time for epoch 3: 1.4543848037719727
########### client 134 delay 0.0s
############# client 134   training time: 1.6421246528625488
json string size = 50842616
 - Tue, 28 Mar 2023 00:56:35 grpc_comm_manager.py[line:67] INFO sending message to 172.22.151.37:50000
 - Tue, 28 Mar 2023 00:57:03 grpc_server.py[line:29] INFO client_6 got something from client_0 from ip address 172.22.151.37
 - Tue, 28 Mar 2023 00:57:03 FedProxClientManager.py[line:31] INFO handle_message_receive_model_from_server.
 - Tue, 28 Mar 2023 00:57:04 FedProxClientManager.py[line:61] INFO #######training########### round_id = 5
 - Tue, 28 Mar 2023 00:57:04 my_model_trainer_classification.py[line:65] INFO Client Index = 5	Epoch: 0	Loss: 1.018533
 - Tue, 28 Mar 2023 00:57:05 my_model_trainer_classification.py[line:65] INFO Client Index = 5	Epoch: 1	Loss: 0.803723
 - Tue, 28 Mar 2023 00:57:05 my_model_trainer_classification.py[line:65] INFO Client Index = 5	Epoch: 2	Loss: 0.660888
########### client training time for epoch 3: 1.5052270889282227
########### client 192 delay 0.0s
############# client 192   training time: 1.7065165042877197
json string size = 50260460
 - Tue, 28 Mar 2023 00:57:07 grpc_comm_manager.py[line:67] INFO sending message to 172.22.151.37:50000
 - Tue, 28 Mar 2023 00:57:34 grpc_server.py[line:29] INFO client_6 got something from client_0 from ip address 172.22.151.37
 - Tue, 28 Mar 2023 00:57:35 FedProxClientManager.py[line:31] INFO handle_message_receive_model_from_server.
 - Tue, 28 Mar 2023 00:57:35 FedProxClientManager.py[line:61] INFO #######training########### round_id = 6
 - Tue, 28 Mar 2023 00:57:35 my_model_trainer_classification.py[line:65] INFO Client Index = 5	Epoch: 0	Loss: 1.177434
 - Tue, 28 Mar 2023 00:57:36 my_model_trainer_classification.py[line:65] INFO Client Index = 5	Epoch: 1	Loss: 0.817042
 - Tue, 28 Mar 2023 00:57:36 my_model_trainer_classification.py[line:65] INFO Client Index = 5	Epoch: 2	Loss: 0.687309
########### client training time for epoch 3: 1.459841012954712
########### client 286 delay 0.0s
############# client 286   training time: 1.6644089221954346
json string size = 50616049
 - Tue, 28 Mar 2023 00:57:38 grpc_comm_manager.py[line:67] INFO sending message to 172.22.151.37:50000
 - Tue, 28 Mar 2023 00:58:05 grpc_server.py[line:29] INFO client_6 got something from client_0 from ip address 172.22.151.37
 - Tue, 28 Mar 2023 00:58:06 FedProxClientManager.py[line:31] INFO handle_message_receive_model_from_server.
 - Tue, 28 Mar 2023 00:58:06 FedProxClientManager.py[line:61] INFO #######training########### round_id = 7
 - Tue, 28 Mar 2023 00:58:06 my_model_trainer_classification.py[line:65] INFO Client Index = 5	Epoch: 0	Loss: 0.963997
 - Tue, 28 Mar 2023 00:58:07 my_model_trainer_classification.py[line:65] INFO Client Index = 5	Epoch: 1	Loss: 0.639647
 - Tue, 28 Mar 2023 00:58:07 my_model_trainer_classification.py[line:65] INFO Client Index = 5	Epoch: 2	Loss: 0.474262
########### client training time for epoch 3: 1.4550764560699463
########### client 289 delay 0.0s
############# client 289   training time: 1.661893367767334
json string size = 50266748
 - Tue, 28 Mar 2023 00:58:09 grpc_comm_manager.py[line:67] INFO sending message to 172.22.151.37:50000
 - Tue, 28 Mar 2023 00:58:36 grpc_server.py[line:29] INFO client_6 got something from client_0 from ip address 172.22.151.37
 - Tue, 28 Mar 2023 00:58:36 FedProxClientManager.py[line:31] INFO handle_message_receive_model_from_server.
 - Tue, 28 Mar 2023 00:58:37 FedProxClientManager.py[line:61] INFO #######training########### round_id = 8
 - Tue, 28 Mar 2023 00:58:37 my_model_trainer_classification.py[line:65] INFO Client Index = 5	Epoch: 0	Loss: 1.338095
 - Tue, 28 Mar 2023 00:58:38 my_model_trainer_classification.py[line:65] INFO Client Index = 5	Epoch: 1	Loss: 0.870652
 - Tue, 28 Mar 2023 00:58:38 my_model_trainer_classification.py[line:65] INFO Client Index = 5	Epoch: 2	Loss: 0.636983
########### client training time for epoch 3: 1.4928538799285889
########### client 280 delay 0.0s
############# client 280   training time: 1.7320270538330078
json string size = 50185619
 - Tue, 28 Mar 2023 00:58:40 grpc_comm_manager.py[line:67] INFO sending message to 172.22.151.37:50000
 - Tue, 28 Mar 2023 00:59:07 grpc_server.py[line:29] INFO client_6 got something from client_0 from ip address 172.22.151.37
 - Tue, 28 Mar 2023 00:59:08 FedProxClientManager.py[line:31] INFO handle_message_receive_model_from_server.
 - Tue, 28 Mar 2023 00:59:08 FedProxClientManager.py[line:61] INFO #######training########### round_id = 9
 - Tue, 28 Mar 2023 00:59:09 my_model_trainer_classification.py[line:65] INFO Client Index = 5	Epoch: 0	Loss: 0.656866
 - Tue, 28 Mar 2023 00:59:09 my_model_trainer_classification.py[line:65] INFO Client Index = 5	Epoch: 1	Loss: 0.446142
 - Tue, 28 Mar 2023 00:59:10 my_model_trainer_classification.py[line:65] INFO Client Index = 5	Epoch: 2	Loss: 0.357521
########### client training time for epoch 3: 1.4943492412567139
########### client 89 delay 0.0s
############# client 89   training time: 1.6960537433624268
json string size = 50397785
 - Tue, 28 Mar 2023 00:59:12 grpc_comm_manager.py[line:67] INFO sending message to 172.22.151.37:50000
 - Tue, 28 Mar 2023 00:59:40 grpc_server.py[line:29] INFO client_6 got something from client_0 from ip address 172.22.151.37
 - Tue, 28 Mar 2023 00:59:41 FedProxClientManager.py[line:31] INFO handle_message_receive_model_from_server.
 - Tue, 28 Mar 2023 00:59:41 FedProxClientManager.py[line:61] INFO #######training########### round_id = 10
 - Tue, 28 Mar 2023 00:59:42 my_model_trainer_classification.py[line:65] INFO Client Index = 5	Epoch: 0	Loss: 0.795897
 - Tue, 28 Mar 2023 00:59:42 my_model_trainer_classification.py[line:65] INFO Client Index = 5	Epoch: 1	Loss: 0.647415
 - Tue, 28 Mar 2023 00:59:43 my_model_trainer_classification.py[line:65] INFO Client Index = 5	Epoch: 2	Loss: 0.546803
########### client training time for epoch 3: 1.449087381362915
########### client 165 delay 0.0s
############# client 165   training time: 1.6553595066070557
json string size = 50582956
 - Tue, 28 Mar 2023 00:59:45 grpc_comm_manager.py[line:67] INFO sending message to 172.22.151.37:50000
